{
	"toolID": "doc_to_asfm",
	"toolName": "Doc To ASFM",
	"description": "Converts a Microsoft Office .docx file to an Abstract Semi-Formal Model (ASFM)",
	"phases": [ "LLD" ],
	"tasks": [ "unitTesting" ],
	"server":"http://asfm:8086",
	"endpoint":{
		"path":"/asfm/doc_to_asfm/{dbName}",
		"method":"post",
		"pathFields":[
			{
				"name": "dbName",
				"description": "The project name where to find the .docx file and put the Abstract Semi-Formal Model (ASFM)",
				"required": true,
				"type": "string",
				"isDBName": true
			}
		],
		"requestBody": {
			"type":"object",
			"required":true,
			"properties": {
				"file_path": {
					"description": "Filename of the Microsoft Office .docx file to convert",
					"type": "string",
					"required":true,
					"artifactDesc": {
						"type:": "doc",
						"allowedExtensions": [ "docx" ]
					}
				}
			}
		}
	}
}
