{
    "toolID" : "srl",
    "toolName" : "SRL Chunk",
    "description" : "SRL Chunk",
    "phases" : [
        "LLD",
        "LLV",
        "HLV",
        "HLD"
    ],
    "tasks" : [
        "requirements",
        "systemDesign",
        "architectureDesign",
        "moduleDesign",
        "systemImplementation",
        "unitTesting",
        "systemTesting",
        "acceptanceTesting",
        "integrationTesting"
    ],
    "server" : "http://srl/",
    "endpoint" : {
        "path" : "/pkmfilesrl",
        "method" : "post",
        "requestBody" : {
            "type" : "object",
            "required" : true,
            "properties" : {
                "invocationID" : {
                    "description" : "The process engine invocation id",
                    "type" : "string",
                    "required" : false
                },
                "project_id" : {
                    "description" : "The DB name where to find the source file",
                    "required" : true,
                    "type" : "string",
                    "isDBName" : true
                },
                "path" : {
                    "description" : "pkm path to query to retrieve json data containing the text to analyze",
                    "type" : "string",
                    "required" : true,
                    "example" : "code/c/comments/mydb"
                },
                "access" : {
                    "description" : "json path allowing to retrieve the text to analyze in the retrieved data",
                    "type" : "string",
                    "required" : true,
                    "example" : "[?global_kind == 'GFun'] | [?loc.pos_start.pos_path == 'examples/vector2.c'].comments | [0]"
                }
            }
        }
    }
}
