{
	"phaseNumber":2,
	"name":"LLD",
	"id": "lld",
	"description":"Low Level Design",
	"completed":false,
	"tasks":[
		{
			"taskNumber":1,
			"name":"Module Design",
			"id": "moduleDesign",
			"completed":false
		},
		{
			"taskNumber":2,
			"name":"System Implementation",
			"id":"systemImplementation",
			"completed":false
		}
	]
}
