{
	"$schema": "http://json-schema.org/draft-07/schema#",
	"$id": "https://gitlab.ow2.org/decoder/pkm-api/-/tree/master/api/pkm-git-user-credential-schema.json",
	"title": "PKM Git User's credential JSON schema",
	"description": "Data model for Git User's credential in PKM",
	"type": "object",
	"properties":
	{
		"git_remote_url":
		{
			"type": "string",
			"description": "Git remote URL"
		},
		"git_user_name":
		{
			"type": "string",
			"description": "Git user's name"
		},
		"git_password":
		{
			"type": "string",
			"description": "Git password (HTTPS password/token or SSH passphrase to unlock SSH private key)"
		},
		"git_ssh_private_key":
		{
			"type": "string",
			"description": "Git SSH private key"
		}
	},
	"required":
	[
		"git_remote_url"
	]
}
