{
	"$schema": "http://json-schema.org/draft-07/schema#",
	"$id": "https://gitlab.ow2.org/decoder/pkm-api/-/tree/master/api/pkm-annotations-schema.json",
	"title": "PKM Annotations",
	"description": "JSON Schema for PKM Annotations",
	"type": "object",
	"properties":
	{
		"path":
		{
			"type": "string",
			"description": "pkm path to query to retrieve json data containing the text"
		},
		"access":
		{
			"type": "string",
			"description": "json path allowing to retrieve the text to analyze in the retrieved data"
		},
		"srl":
		{
			"$ref": "#/definitions/SRLResults"
		},
		"ner":
		{
			"$ref": "#/definitions/NERResults"
		}
	},
	"required":
	[
		"path",
		"access"
	],
	"anyOf":
	[
		{ "required": [ "srl" ] },
		{ "required": [ "ner" ] }
	],
	"definitions":
	{
		"SRLResults":
		{
			"type": "array",
			"items":
			{
				"$ref": "#/definitions/SRLResult"
			}
		},
		"NERResults":
		{
			"type": "array",
			"items":
			{
				"$ref": "#/definitions/NERResult"
			}
		},
		"SRLChunk":
		{
			"properties":
			{
				"len":
				{
					"type": "integer"
				},
				"pos":
				{
					"type": "integer"
				},
				"text":
				{
					"type": "string"
				}
			},
			"required":
			[
				"len",
				"pos",
				"text"
			],
			"type": "object"
		},
		"SRLPredicate":
		{
			"properties":
			{
				"predicate":
				{
					"$ref": "#/definitions/SRLChunk"
				},
				"roles":
				{
					"additionalProperties":
					{
						"$ref": "#/definitions/SRLChunk"
					},
					"type": "object"
				}
			},
			"required":
			[
				"predicate",
				"roles"
			],
			"type": "object"
		},
		"SRLResult":
		{
			"properties":
			{
				"predicates":
				{
					"items":
					{
						"$ref": "#/definitions/SRLPredicate"
					},
					"type": "array"
				}
			},
			"required":
			[
				"predicates"
			],
			"type": "object"
		},
		"NERChunk":
		{
			"properties":
			{
				"len":
				{
					"type": "integer"
				},
				"pos":
				{
					"type": "integer"
				},
				"text":
				{
					"type": "string"
				},
				"type":
				{
					"type": "string"
				}
			},
			"required":
			[
				"len",
				"pos",
				"text",
				"type"
			],
			"type": "object"
		},
		"NERResult":
		{
			"properties":
			{
				"entities":
				{
					"items":
					{
						"$ref": "#/definitions/NERChunk"
					},
					"type": "array"
				}
			},
			"required":
			[
				"entities"
			],
			"type": "object"
		}
	}
}
