{
  "$schema": "http://json-schema.org/draft-07/schema#",
  "$id": "https://gitlab.ow2.org/decoder/pkm-api/-/tree/master/api/TESTAR_Settings_Schema.json",
  "title": "TESTAR settings",
  "description": "TESTAR settings",
  "type": "object",
  "properties":
  {
  },
	"definitions":
	{
	}
}
